Endpoint is :
https://reqres.in/api/users

Request body is :
{
    "name": "tamil",
    "job": "srqa"
}

Response header date is : 
Wed, 28 Feb 2024 12:10:45 GMT

Response body is : 
{"name":"tamil","job":"srqa","id":"674","createdAt":"2024-02-28T12:10:45.612Z"}