Endpoint is :
https://reqres.in/api/login

Request body is :
{
    " ": " ",
    "password": "pistol"
}

Response header date is : 
Wed, 28 Feb 2024 12:10:50 GMT

Response body is : 
{"error":"Missing email or username"}