Endpoint is :
https://reqres.in/api/login

Request body is :
{
    "email": "eve.holt@reqres.in",
    "password": "pistol"
}

Response header date is : 
Sun, 25 Feb 2024 13:47:49 GMT

Response body is : 
{"token":"QpwL5tke4Pnpja7X4"}